 _ _ _ _ _ O 
|  #|#   _ _|
|T|_ _|#|_ #|
|_ #  |_ T| |
|  _|_ _|_ #|
|S _ _ _ _ _|
8
2 4
BAD
!!!!!!!!!!
what does the text below means?
<---     dead
         dead
         dead
         dead
!!!!!!!!!!
left for dead
!!!!!!!!!!
4321
2 6
BAD
!!!!!!!!!!
what does the text below means?
biddenbidden
biddenbidden
fruit
!!!!!!!!!!
forbidden fruit
!!!!!!!!!!
4321
3 8
BAD
!!!!!!!!!!
what does the text below means?
pressure
--------
  army
!!!!!!!!!!
army is under pressure
!!!!!!!!!!
4321
3 12
BAD
!!!!!!!!!!
if 5 sandwich makers make 5 sandwiches in 5 minutes
how many minutes does it take for 100 sandwich makers to make 100 sandwiches?
!!!!!!!!!!
5
!!!!!!!!!!
4321
4 4
BAD
!!!!!!!!!!
what do you see?
              a
              n
              g
              l
          angle
          n
          g
          l
          e
!!!!!!!!!!
triangle
!!!!!!!!!!
4321
5 12
BAD
!!!!!!!!!!
what does the text below means?
death , life
!!!!!!!!!!
life after death
!!!!!!!!!!
4321
3 2
KHOSH
5123
4 10
KHOSH
2426
U
R
U
square
U
triangle
L
U
U
R
left for dead
D
R
U
forbiddenfruit
U
forbidden fruit
R
R
R
U