 _ _ O _ _ 
|  _ # _  |
|#|_ _ _|#|
|_ _ T _ _|
|_ _|S|_ _|
4
3 2
BAD
!!!!!!!!!!
count the brothers : Bryan - Isaac - Nathan - Alex - Ryan - Yuri
!!!!!!!!!!
110
!!!!!!!!!!
4321
3 10
BAD
!!!!!!!!!!
what does the text below means?
    i
--------
 slept
!!!!!!!!!!
i over slept
!!!!!!!!!!
4321
2 6
BAD
!!!!!!!!!!
what does the text below means?
death , life
!!!!!!!!!!
life after death
!!!!!!!!!!
4321
4 6
KHOSH
##########
U
R
R
U
i over slept
U
L
L
life after death
U