 _ _ O _ _ 
|  #  | | |
| | |_ #| |
| |_ T _  |
|_ _ _|S _|
3
2 4
BAD
!!!!!!!!!!
5 + 3 = 28
9 + 1 = 810
8 + 6 = 214
5 + 4 = 19
7 + 3 = ?
!!!!!!!!!!
410
!!!!!!!!!!
4321
3 8
BAD
!!!!!!!!!!
what does the text below means?
right = right
!!!!!!!!!!
equal rights
!!!!!!!!!!
4321
4 6
KHOSH
##########
R
U
L
U
same rights
L
L
U
U
410
R
U